[{
        "Object": "br.de - sogehtmedien",
        "Tag": ["portal", "kinder", "eltern", "video"],
        "Description": "so geht MEDIEN ist auch ein Angebot der Rundfunkanstalten gut gemacht richtig gut gemacht! Beispiel: Tutorial Video – Fake News im Netz erkennen",
        "Link": "https://www.br.de/sogehtmedien/"
    },
    {
        "Object": "internet-abc.de",
        "Tag": ["portal", "kinder", "eltern"],
        "Description": "Portal für Internetkompetnenz mit z.B. dem Familien-Mediennutzungsvertrag (Wer-darf-Was-Wie-lange)",
        "Link": "https://www.internet-abc.de/"
    },
    {
        "Object": "klick-tipps.net",
        "Tag": ["portal", "kinder", "eltern"],
        "Description": "Video-Portal des MKFS hauptsächlich für Kinder aber mit Zusatzuinfos für Eltern und Pädagogen",
        "Link": "https://www.klick-tipps.net/"
    },
    {
        "Object": "kinder-ministerium.de",
        "Tag": ["portal", "kinder", "eltern"],
        "Description": "Politik-Portal für Kinder mit Browserspielen zur Auflockerung",
        "Link": "http://www.kinder-ministerium.de/"
    },
    {
        "Object": "fragFINN - Suchmaschine für Kinder",
        "Tag": ["portal", "kinder"],
        "Description": "Standbein der Initiative - Ein Netz für Kinder - Die von der Wirtschaft getragene Kindersuchmaschine fragFINN richtet sich an Kinder von sechs bis zwölf Jahren richtet. Hier sind ausschließlich für Kinder unbedenkliche Seiten zugelassen, die von Medienpädagogen redaktionell geprüft werden. Diese Liste kindersicherer Websites (sog. Whitelist) wird täglich aktualisiert, ergänzt und geprüft.",
        "Link": "https://www.fragfinn.de/"
    },
    {
        "Object": "enfk.de - Kinderwebsites",
        "Tag": ["portal", "kinder", "eltern"],
        "Description": "Portal - Ein Netz für Kinder - der Bundesregierung mit empfohlenen Projekten und Webseiten für Kinder",
        "Link": "http://www.enfk.de/Kinderwebsites"
    },
    {
        "Object": "seitenstark.de",
        "Tag": ["portal", "kinder", "eltern"],
        "Description": "Empfohlene Webseiten des Bundesprojekts - Netz für Kinder",
        "Link": "https://www.seitenstark.de/kinder/mitglieder"
    },
    {
        "Object": "blog.wdr.de: WhatsApp - Wer’s nutzt, begeht ein Delikt",
        "Tag": ["praxistipps", "netzwerk", "kinder", "eltern"],
        "Description": "Bei der Anmeldung in ein soziales Netzwerk oder einen Messanger sollte NICHT das komplette Adressbuch hochladen werden, da es persönliche Daten der Freunde sind und eine Erlaubnis erfordert. Es ist kaum nachzuweisen aber strafrechtlich relevant und kann für Akquise und Datenhandel benutzt werden.",
        "Link": "https://blog.wdr.de/digitalistan/whatsapp-wers-nutzt-begeht-ein-delikt/"
    },
    {
        "Object": "Tutorial Video - Fake News im Netz erkennen",
        "Tag": ["praxistipps", "fakenews", "netzwerk", "kinder", "eltern"],
        "Description": "Echte von FakeNews zu unterscheiden wird immer schwieriger, bleibt aber wichtig, um nicht mit Desinformation, Phishing oder Hetze manipuliert zu werden. Deshalb besser vor dem Teilen ein paar Minuten Detektiv spielen: Wie echt und seriös ist die Quelle? Stimmen die Fakten? Sind die Fotos echt?",
        "Link": "https://www.br.de/sogehtmedien/stimmt-das/luegen-erkennen/un-wahrheiten-luegen-erkennen124.html"
    },
    {
        "Object": "images.google.de",
        "Tag": ["praxistipps", "fakenews", "netzwerk", "kinder", "eltern"],
        "Description": "Google weiss nicht alles aber kennt alle Bilder im Netz mit images.google.de hilft es bei der Bildrecherche. Statt Suchworten kann ein Bild hochgeladen werden, um Webseiten die es nutzen zu finden. Der Kontext wird so schnell klar.",
        "Link": "https://images.google.de/"
    },
    {
        "Object": "Android Kindersicherung",
        "Tag": ["praxistipps", "hardware", "eltern", "video"],
        "Description": "Einstellungen, um ein Android Smartphone schnell kindersicher zu machen.",
        "Link": "https://youtu.be/HAvMgyxGj5A"
    },
    {
        "Object": "Online-Zeiten am Fritz Router",
        "Tag": ["praxistipps", "hardware", "eltern", "video"],
        "Description": "Fritz!Box Router: Online-Zeiten festlegen mit der Kindersicherung",
        "Link": "https://youtu.be/zWaNZvlwBAs"
    },
    {
        "Object": "Apple iOS Kindersicherung",
        "Tag": ["praxistipps", "hardware", "eltern"],
        "Description": "Apple iOS: Kindersicherung auf dem iPhone, iPad oder iPod touch Ihres Kindes verwenden",
        "Link": "https://support.apple.com/de-de/HT201304"
    },
    {
        "Object": "Kindermodus Samsung Galaxy Tablets ",
        "Tag": ["praxistipps", "hardware", "eltern"],
        "Description": "",
        "Link": "https://youtu.be/poBLm4Dgpu0"
    },
    {
        "Object": "ohrenspitzer.de",
        "Tag": ["portal", "kinder", "audio"],
        "Description": "Audio-Portal des MKFS für Eltern und Pädagogen zum Thema: hören, verstehen und gestalten,",
        "Link": "http://www.ohrenspitzer.de/"
    },
    {
        "Object": "DeineFreunde",
        "Tag": ["audio", "kinder", "eltern"],
        "Description": "HipHop Kinderband aus Hamburg die Kinderthemen ernst nimmt",
        "Link": "http://deinefreunde.info/"
    },
    {
        "Object": "schulkinowoche-bw.de - Filmauswahl",
        "Tag": ["portal", "kinder", "video"],
        "Description": "Film-Projekt aus Ba.-Wü. mit Filmdatenbank inkl. Zusatzmaterial und Alterseinschätzung",
        "Link": "https://schulkinowoche-bw.de/filmauswahl/"
    },
    {
        "Object": "kinderfilmwelt.de",
        "Tag": ["portal", "kinder", "eltern", "video"],
        "Description": "Eine Filmdatenbank mit über 800 Kinderfilmen die für jeden Film eine detailierte Beschreibung, Fotos und ein Altersempfehlungen hat.",
        "Link": "http://www.kinderfilmwelt.de/"
    },
    {
        "Object": "kikaTV + Medienkompetenz",
        "Tag": ["portal", "kinder", "eltern", "video"],
        "Description": "KIKA Begleitmaterial für Eltern zu TV Sendungen, über Mobile Medien und Allerlei im Internet",
        "Link": "https://www.kika.de/erwachsene/medienkompetenz/"
    },
    {
        "Object": "Freiwillige Selbstkontrolle Multimedia-Diensteanbieter e.V. (FSM) ",
        "Tag": ["portal", "eltern"],
        "Description": "",
        "Link": "http://www.fsm.de/de/eltern"
    },
    {
        "Object": "schau-hin.info",
        "Tag": ["portal", "eltern"],
        "Description": "Die Initiative - SCHAU HIN! Was Dein Kind mit Medien macht - ist gefördert vom Bundesfamilienministeriums und soll als Elternratgeber zur Mediennutzung Erziehende unterstützen, Kinder im Umgang mit Medien zu stärken.",
        "Link": "https://www.schau-hin.info/"
    },
    {
        "Object": "Chaos macht Schule",
        "Tag": ["web", "portal", "assets"],
        "Description": "Chaos macht Schule (CMS) ist die Projektseite des Chaos Computer Club (CCC), die sich mit der Medienkompetenz von Schülern beschäftigt. Bildungsträger und Eltern können sich zum Thema Beraten lassen und Workshops in Schulen gebucht werden.",
        "Link": "https://berlin.ccc.de/wiki/Chaos_macht_Schule"
    },
    {
        "Object": "Vorstellung des CCC Projektes CMS",
        "Tag": ["video", "eltern"],
        "Description": "Video zur Vorstellung des Projektes Chaos macht Schule des CCC: Die Lebenswelt von Kindern und Jugendlichen sowie die der Schulen könnte in Bezug auf die Digitalisierung kaum gegensätzlicher sein: Schülerinnen und Schüler leben und entfalten sich begeistert in der digitalen Welt, aber die Schule ist kaum in der Lage, Schülern ihre drängenden Fragen rund um die komplexe digitale Welt zu beantworten. In unserem Talk möchten wir anhand unserer Erfahrungen aus dem Projekt - Chaos macht Schule - u.a. diskutieren, wie man die heranwachsende Generation u. a. für Themen wie Datenschutz und Überwachung sensibilisieren und gleichzeitig Technikbegeisterung bei jungen Menschen fördern kann.",
        "Link": "https://media.ccc.de/v/33c3-8262-zwischen_technikbegeisterung_und_kritischer_reflexion_chaos_macht_schule"
    },
    {
        "Object": "CMS Beispiel: 5.-Klässlerinnen, die über die Millisekunden für einen delay()-Aufruf diskutieren!",
        "Tag": ["video", "eltern"],
        "Description": "Video Vorstellung des Projektes des Chaos Computer Club am Beispiel: 5.-Klässlerinnen, die über die Millisekunden für einen delay()-Aufruf diskutieren! Gibt es nicht? Doch, gibt es! Ein Modellprojekt mit sieben Schulen in Aachen hat diese Frage untersucht – wir haben die Schülerinnen und Schüler begleitet und würden gerne darüber berichten, denn wir wissen jetzt: Programmieren macht ihnen Spaß!",
        "Link": "https://media.ccc.de/v/34c3-8865-digitale_bildung_in_der_schule"
    },
    {
        "Object": "CCC Vortrag: Bildung für eine digitale Gesellschaft",
        "Tag": ["video", "eltern"],
        "Description": "Video: allgemeiner Vortrag beim Chaos Computer Club Bildung zum Thema: Bildung für eine digitale Gesellschaft",
        "Link": "https://media.ccc.de/v/13np-24-bildung_fuer_eine_digitale_gesellschaft"
    },
    {
        "Object": "E-Mail Verschlüsselung",
        "Tag": ["praxistipps", "kinder", "eltern"],
        "Description": "Mailbox.org erklärt per Video: Wie funktioniert E-Mail-Verschlüsselung mit PGP?",
        "Link": "https://vimeo.com/86736532"
    },
    {
        "Object": "E-Mail Verschlüsselung: Der digitale Briefumschlag ",
        "Tag": ["praxistipps", "kinder", "eltern"],
        "Description": "Lustige und plastische Erklärung von E-Mail Verschlüsselung als digitaler Briefumschlag",
        "Link": "https://vimeo.com/17610424"
    },
    {
        "Object": "Kurse für Lernbegleiter bei Wetek.de",
        "Tag": ["praxistipps", "beratung", "kurse", "lernbegleiter"],
        "Description": "WeTeK Berlin gGmbH - gemeinnützige Gesellschaft für Qualifizierung, Ausbildung und Jugendkultur mit Weiterbildungen für Pädagogen zur Medienbildung",
        "Link": "http://wetek.de/medienbildung/"
    },
    {
        "Object": "Caritas - Beratung zur Internetsucht",
        "Tag": ["praxistipps", "beratung", "kurse", "lernbegleiter"],
        "Description": "Lost in space -  Internetsuchtberatung der Caritas mit Infoabenden und Beratungsstelle in Berlin Kreuzberg. Kompetenter Infoabend.",
        "Link": "https://internetsucht-berlin.de/"
    },
    {
        "Object": "BZGA - Beratung zur Internetsucht",
        "Tag": ["beratung", "eltern"],
        "Description": "BZGA Infoseite zur Internetsucht mit Selbsttest und Infomaterial",
        "Link": "https://www.ins-netz-gehen.de/"
    }
]